{
  "A": {
    "children": ["A-1", "A-2", "A-3", "A-4", "A-5", "A-6", "A-7"],
    "id": "A",
    "name": "ABCD",
    "parents": [],
    "spouse": "B"
  },
  "A-1": {
    "children": ["A-1-1", "A-1-2", "A-1-3", "A-1-4", "A-1-5", "A-1-6"],
    "id": "A-1",
    "name": "EFGH",
    "parents": ["A", "B"],
    "spouse": "B-1"
  }
}
